Targeted Learning for Survival Analysis with Competing Risks
…
## Version: 1.1.0

We simulate a simple data with no censoring and a single cause of failure to illustrate the machinery of the survtmle package.

set.seed(1234)
n <- 200
t_0 <- 6
trt <- rbinom(n, 1, 0.5)
adjustVars <- data.frame(W1 = round(runif(n)), W2 = round(runif(n, 0, 2)))
ftime <- round(1 + runif(n, 1, 4) - trt + adjustVars$W1 + adjustVars$W2)
ftype <- round(runif(n, 0, 1))

The simple data structure contains a set of baseline covariates (adjustVars), a binary treatment variable (trt), a failure time that is a function of the treatment, adjustment variables, and a random error (ftime), and a failure type (ftype), which denotes the cause of failure (0 means no failure, 1 means failure). The first few rows of data can be viewed as follows.

## # A tibble: 200 x 5
##    ftype ftime   trt    W1    W2
##    <dbl> <dbl> <int> <dbl> <dbl>
##  1  0     5.00     0  1.00  1.00
##  2  1.00  4.00     1  1.00  1.00
##  3  1.00  4.00     1  0     2.00
##  4  0     6.00     1  1.00  2.00
##  5  0     4.00     1  1.00  1.00
##  6  1.00  3.00     1  1.00  0   
##  7  0     7.00     0  0     2.00
##  8  0     3.00     0  0     0   
##  9  1.00  4.00     1  0     1.00
## 10  0     4.00     1  1.00  1.00
## # ... with 190 more rows
…
Multiple failure types

In all of the preceding examples, we have restricted our attention to the case where there is only a single failure type of interest. Now we consider more scenarios where we observe multiple failure types. First, we simulate data with two types of failure.

set.seed(1234)
n <- 200
trt <- rbinom(n, 1, 0.5)
adjustVars <- data.frame(W1 = round(runif(n)), W2 = round(runif(n, 0, 2)))
ftime <- round(1 + runif(n, 1, 4) - trt + adjustVars$W1 + adjustVars$W2)
ftype <- round(runif(n, 0, 2))

This simulated data structure is similar to the single failure type data; however, now the failure type variable (ftype) now contains two distinct types of failure (with 0 still reserved for no failure).

## # A tibble: 200 x 5
##    ftype ftime   trt    W1    W2
##    <dbl> <dbl> <int> <dbl> <dbl>
##  1  0     5.00     0  1.00  1.00
##  2  2.00  4.00     1  1.00  1.00
##  3  1.00  4.00     1  0     2.00
##  4  1.00  6.00     1  1.00  2.00
##  5  1.00  4.00     1  1.00  1.00
##  6  1.00  3.00     1  1.00  0   
##  7  0     7.00     0  0     2.00
##  8  1.00  3.00     0  0     0   
##  9  1.00  4.00     1  0     1.00
## 10  1.00  4.00     1  1.00  1.00
## # ... with 190 more rows
…
